 10001    36720410
 10137    01736110
 10201    04878Q86
 11048    29406L20
 11404    20911510
 11674    23333110
 12558    49456B10
 12781    50559710
 12797    83415T10
 13019    37228420
 13185    48213W10
 13586    H6169Q10
 13688    69331C10
 13821    71103010
 14009    G1625810
 14030    62942X10
 14168    70338P10
 14291    59564N10
 15720    28102010
 17929    90268110
 18411    84258710
 20750    13078810
 21776    30161N10
 21792    15189T10
 21928    45110710
 22437    12541M10
 22517    69351T10
 22859    23329310
 22947    17247410
 23026    33793210
 23042    29164110
 23085    80589M10
 23114    74326310
 23182    16530310
 23229    12589610
 23501    71329110
 23536    97665710
 23712    74457310
 23835    55269010
 23931    98389B10
 24010    29364G10
 24053    95709T10
 24096    29266M10
 24109    02553710
 24205    65339F10
 24221    21037110
 24248    01852230
 24328    26884L10
 24360    49337W10
 24432    39116410
 24440    67083710
 24563    87316810
 24969    05379B10
 24985    02360810
 25099    45822P10
 25443    74531010
 25590    63618010
 26463    20779710
 26470    29265N10
 26606    03840P10
 27959    26441C20
 27991    72348410
 29285    24774810
 32986    04956010
 33372    29459240
 37023    34113510
 37161    87237510
 38658    67073Y10
 38762    65473P10
 41187    41987010
 44206    66439710
 44274    00770F10
 48274    65408610
 48389    90311910
 49971    72018610
 50789    55277P10
 51596    49455P10
 51633    92240G10
 52898    03836W10
 53663    90274810
 53859    59668010
 54199    78430510
 54624    29297010
 55511    69349H10
 56952    14733910
 58334    66765510
 58819    01880210
 60098    68964810
 61188    84489510
 61946    09211310
 63503    15577110
 63976    39315410
 64290    62943110
 64557    12561W10
 64742    74622830
 64936    25746U10
 67360    91325910
 71395    78412D10
 71475    02989910
 71782    84533110
 75290    29258N10
 75888    95825910
 76586    69336620
 77798    70825420
 79767    29274F10
 80294    74955L10
 80680    25746Q10
 80717    29244T10
 81038    44330410
 81040    50063110
 81558    07272810
 81610    G2377310
 82855    28367785
 83469    04311320
 83981    13134710
 84110    57076210
 84345    90295110
 84763    91979210
 85064    26835310
 85237    20441B40
 85342    81013T70
 85570    12753720
 85777    91311Q10
 86042    42210P10
 86136    81685110
 87146    67019E10
 87280    63627430
 87293    90400P10
 87438    29265W10
 87460    11079340
 88791    07367720
 88857    98718410
 88935    82619750
 88992    37244E10
 89068    89346D10
 89166    86468610
 89198    92334N10
 89328    13910R10
 89403    20441A10
 89472    69422R10
 89541    29250X10
 89638    88244310
 90071    62937750
 90245    20061Q10
 90338    12615310
 90352    26817R10
 90444    68668810
 90458    66807430
 90786    46568510
 91069    36729920
 91071    60467R10
 91111    29273V10
 91204    73650884
 91231    48268R10
 91236    81013T80
 91268    07011T30
 91322    92336G10
 91650    84756010
 91929    29244A10
 91964    67487030
 92035    18449910
 92098    55312Q20
 92118    20440988
 92295    96040V10
 92530    13134730
 92535    39530A10
 92550    G1625210
 92551    N1842P10
 92614    03042010
 92636    90338S10
 92757    82935B20
 92802    15234Q20
 92938    16891020
 93046    G9103F10
 93052    02539810
 93067    69766020
 93202    16949D10
